<svg width="14" height="13" viewBox="0 0 14 13" fill="none" xmlns="http://www.w3.org/2000/svg">
<path d="M1.09375 9.71875H6.5625V11.6875H4.375V12.5625H9.625V11.6875H7.4375V9.71875H12.9062C13.0802 9.71855 13.247 9.64934 13.3701 9.52631C13.4931 9.40329 13.5623 9.23649 13.5625 9.0625V0.96875C13.5623 0.794764 13.4931 0.627962 13.3701 0.504935C13.247 0.381908 13.0802 0.312703 12.9062 0.3125H1.09375C0.919764 0.312703 0.752962 0.381908 0.629935 0.504935C0.506908 0.627962 0.437703 0.794764 0.4375 0.96875V9.0625C0.437703 9.23649 0.506908 9.40329 0.629935 9.52631C0.752962 9.64934 0.919764 9.71855 1.09375 9.71875ZM1.3125 1.1875H12.6875V8.84375H1.3125V1.1875Z" fill="#ADAFBB"/>
</svg>
